systemc/systemc_ratematching/systemc_ratematching/tb_ratematching.vcd
$date
     Oct 21, 2024       16:02:55
$end

$version
 SystemC 2.3.3-Accellera --- Sep 19 2024 21:15:28
$end

$timescale
     1 ps
$end

$scope module SystemC $end
$var wire    1  aaaaa  clk       $end
$var wire    1  aaaab  rst_n       $end
$var wire   47  aaaac  cfg_data [46:0]  $end
$var wire    1  aaaad  cfg_vld       $end
$var wire    1  aaaae  cfg_rdy       $end
$var wire   128  aaaaf  input_data [127:0]  $end
$var wire    1  aaaag  input_vld       $end
$var wire    1  aaaah  input_rdy       $end
$var wire    1  aaaai  input_last       $end
$var wire   128  aaaaj  output_data [127:0]  $end
$var wire    1  aaaak  output_vld       $end
$var wire    1  aaaal  output_rdy       $end
$var wire    1  aaaam  output_last       $end
$upscope $end
$enddefinitions  $end

$comment
All initial values are dumped below at time 0 sec = 0 timescale units.
$end

$dumpvars
1aaaaa
0aaaab
b1000100100000111110100000000010100101000 aaaac
1aaaad
1aaaae
b0 aaaaf
0aaaag
0aaaah
0aaaai
bXXXXXXXXXXXXXXXXXXXXXXXXXXXXXXXXXXXXXXXXXXXXXXXXXXXXXXXXXXXXXXXXXXXXXXXXXXXXXXXXXXXXXXXXXXXXXXXXXXXXXXXXXXXXXXXXXXXXXXXXXXXXXXXX aaaaj
0aaaak
1aaaal
0aaaam
$end

#5000
0aaaaa

#10000
1aaaaa
0aaaad

#15000
0aaaaa

#20000
1aaaaa
0aaaae
b11011001110110100111101111101010000110100011000111011000101010111110001010100010011110110100111010000101010111000101110001011100 aaaaf
1aaaag
1aaaah

#25000
0aaaaa

#30000
1aaaaa
b1010000111011010000000011000100100000111000100011101010100110110000111110110111110000100000010011000010110000010010110100111001 aaaaf

#35000
0aaaaa

#40000
1aaaaa
b10010111000101010111101001101111110010001110010010111011111001000011001011000100000011010011010111110010011100010110000010010010 aaaaf

#45000
0aaaaa

#50000
1aaaaa
b11101011101000000010111000110111100110000001011111010110001101101010000101000100010101010001110111110100100110101101111000110111 aaaaf

#55000
0aaaaa

#60000
1aaaaa
b11110000000111110010111001110010010010101100000010101011001101011011111000111010001000001111111101111010011111010111111111001010 aaaaf

#65000
0aaaaa

#70000
1aaaaa
b11010000000001011010001100110010000110111011111100001000010111000010101111000110000100011010111010001000001000001000001110011101 aaaaf

#75000
0aaaaa

#80000
1aaaaa
b100111111011001011001011100011101001011110111000111000100101001000100001011011010100101000100100110000011101000000000011100011 aaaaf

#85000
0aaaaa

#90000
1aaaaa
b10011000010101000110101110000011000000111001111010001001111011101101010000011101110010011110010111111001101011000001011101010001 aaaaf

#95000
0aaaaa

#100000
1aaaaa
b101010111101110000110101101011111100000110011111010011011111101101010000011101110011001010011100000100110000111000101101001111 aaaaf

#105000
0aaaaa

#110000
1aaaaa
b1011101101110101001101110010011110000110101010110100101011101100110000000001010001111100001111011011110010111000011100101101111 aaaaf

#115000
0aaaaa

#120000
1aaaaa
b11110011011101111010011101011100011111010000000000000000000000000000000000000000000000000000000000000000000000000000000000000000 aaaaf
1aaaai

#125000
0aaaaa

#130000
1aaaaa
0aaaag
0aaaah
b10101100001011110111001111111101001011000011110010011001110110100110000110110001010010001011111000000001010011100011101010010010 aaaaj
1aaaak

#135000
0aaaaa

#140000
1aaaaa
b110101010001001010010000101000001100001011001010111010101100011100010011111001101000011110010101010000001101010101001110110010 aaaaj

#145000
0aaaaa

#150000
1aaaaa
b10101100101101110001011010011000001011101111100011100000010011001101001100010011000100110101111100101011100110011001101001011110 aaaaj

#155000
0aaaaa

#160000
1aaaaa
b1101011100101010101011111001011011010111001000111010011100101110101010101001000011111100111000001111111000001110000110000001000 aaaaj

#165000
0aaaaa

#170000
1aaaaa
b1000000011000110011100001101110111100001100011101000100111010100110001110011101001000001110011100100110001011111101000111101 aaaaj

#175000
0aaaaa

#180000
1aaaaa
b11111000111100010111010110011011001010001010111010011100110011000010011100100111001100010010111010001010111110100111001011010001 aaaaj

#185000
0aaaaa

#190000
1aaaaa
b11011101111001000000110111011100000000101000000101101110000001011001010011110000111110110101010001010100010001101001000010100000 aaaaj

#195000
0aaaaa

#200000
1aaaaa
b10100110110110100000010011101110011111000000111010100000110111111001111011100111010101011100101111000110100101100000011110110011 aaaaj

#205000
0aaaaa

#210000
1aaaaa
b110001001101001101111110101100111111101011101101101110100110001111000111010000001011101111110110011010000110000010110110101011 aaaaj

#215000
0aaaaa

#220000
1aaaaa
b11111101101110101011101101110100110000101001000111011000011011100001010000100001011001110100010000011110000011001101010010000100 aaaaj

#225000
0aaaaa

#230000
1aaaaa
b1100011110011110101000011111011010000111000011101100010011111101101000010101100100100101110111111001100100110110000001001100100 aaaaj

#235000
0aaaaa

#240000
1aaaaa
b10000101000101010010110100001110110010000110000000100110101001001011010111111110101011000111000100011100110000010001000000101000 aaaaj

#245000
0aaaaa

#250000
1aaaaa
b100011001010011100000111100010100010111111011011110100010100111011000000000100010001001101001101000110001001101110011001010011 aaaaj

#255000
0aaaaa

#260000
1aaaaa
b10110101011011101010100111010100110100110110001110000101001010001110111011010110111111101010011011111010001011000001111001110 aaaaj

#265000
0aaaaa

#270000
1aaaaa
b110110001111001110111000111011100111100101010110110111001110001111100011100111011011000001110111101111101010111011010001111 aaaaj

#275000
0aaaaa

#280000
1aaaaa
b11110110001101001101000100101110010011100010011111100011011100111000010101000101000000000000000000000000000000000000000000000000 aaaaj

#285000
0aaaaa

#290000
1aaaaa
1aaaam

